###############################################################################
#
# IAR ANSI C/C++ Compiler V7.70.1.11437/W32 for ARM       17/Oct/2019  14:24:07
# Copyright 1999-2016 IAR Systems AB.
#
#    Cpu mode     =  thumb
#    Endian       =  little
#    Source file  =  hal/os/hal_os_cmsis.c
#    Command line =  
#        hal/os/hal_os_cmsis.c -DCPU_S32K14x -D__FPU_PRESENT=1 -D__APP_
#        -DSW_VERSION=1000u -I../sys/ewarm_/ew_inc -Icmsis_os
#        -Icmsis_os/Freertos -Icmsis_os/Freertos/include
#        -Icmsis_os/Freertos/portable/IAR/ARM_CM4F
#        -Icmsis_os/Freertos/portable/MemMang -Ihal -IHal/cfg -Ihal/cpu_core
#        -IHal/cpu_core/ARM-Cortex-M4/IAR -Ihal/cpu_core/CMSIS/Include
#        -Ihal/cpu_core/s32k14x -IHal/ext_dev -IHal/hal_c -IHal/os -IHal/hw
#        -IApp -IApp/eep -IApp/flash -IApp/pwrctrl -IApp/version -IApp/diag
#        -IApp/cfg -IApp/cfg/gen_code -IApp/monitor -IApp/tp_iic -IApp/host_iic
#        -IApp/cf_test -IApp/eeprom/gen_code -IApp/boot -IApp/power_mana -Ibsp
#        -Ibsp/gpio -Ibsp/cpu_ts -Ibsp/bat_mana -Ibsp/panel -Ibsp/temperate
#        -Ibsp/backlight -Ibsp/dev_pwr -Iservice -Iobj -Itrace/server -Itrace
#        -Itrace/cfg -Itrace/trace_phy --cpu=Cortex-M4F -e --thumb
#        --char_is_unsigned --endian=little --diag_suppress=pa050 --silent
#        --fpu=VFPv4_sp -D__CHECK_DEVICE_DEFINES --debug --vla -Om -o
#        obj/hal_os_cmsis.o --dependencies=m obj/hal_os_cmsis.dep -l
#        obj/hal_os_cmsis.lst
#    Locale       =  Chinese (Simplified)_People's Republic of China.936
#    List file    =  obj/hal_os_cmsis.lst
#    Object file  =  obj/hal_os_cmsis.o
#
###############################################################################

C:\A26\GAC_NE_DS_A26_2019_27632_DevEng_Workspace\src_app\hal\os\hal_os_cmsis.c
      1          
      2          /** >>>>>>>>>>>>>>>>>>>>>>>>>>>>>>>>>>>>>>>>>>>>>>>>>>>>>>>>>>> **/
      3          #include"hal_os.h"
      4          
      5          /** >>>>>>>>>>>>>>>>>>>>>>>>>>>>>>>>>>>>>>>>>>>>>>>>>>>>>>>>>>> **/
      6          //#if ( configQUEUE_REGISTRY_SIZE > 0 )
      7          //HAL_OS_SEM_ID 		HalOS_SemaphoreCreate(uint16 cnt, const char * sem_name)
      8          //{
      9          //	osSemaphoreDef_t sem =  {0};
     10          	
     11          //	HAL_OS_SEM_ID id = osSemaphoreCreate((osSemaphoreDef_t*){0},cnt);
     12          //	vQueueAddToRegistry(id,sem_name);
     13          //	return id;
     14          //}
     15          //#endif	
     16          /** >>>>>>>>>>>>>>>>>>>>>>>>>>>>>>>>>>>>>>>>>>>>>>>>>>>>>>>>>>> **/
     17          //#ifdef POWER_MODE_CTRL_EN
     18          //HAL_OS_SEM_STATE  	HalOS_SemaphoreWait  (HAL_OS_SEM_ID id, uint32 millisec)
     19          //{	
     20          //	HAL_OS_SEM_STATE state;
     21          
     22          //	if ( millisec != HAL_OS_WaitForever && millisec != 0x00 ){
     23          //		PwrCtrl_DisMpSleepGlobal();
     24          //	}
     25          	
     26          //	state = (osSemaphoreWait(id,millisec)==0) ? HAL_OS_SEM_ERR_NONE : HAL_OS_SEM_TIMEOUT;
     27          
     28          //	if ( millisec != HAL_OS_WaitForever && millisec != 0x00 ){
     29          //		PwrCtrl_EnMpSleepGlobal();
     30          //	}
     31          
     32          //	return state;
     33          //}
     34          //#endif
     35          
     36          /** >>>>>>>>>>>>>>>>>>>>>>>>>>>>>>>>>>>>>>>>>>>>>>>>>>>>>>>>>>> **/
     37          /* return 0: false, other: success	*/
     38          //void  HalOS_SemaphoreDelete(HAL_OS_SEM_ID id)
     39          //{
     40          //	(void)osSemaphoreDelete(id);
     41          //#if ( configQUEUE_REGISTRY_SIZE > 0 )
     42          //	vQueueUnregisterQueue(id);
     43          //#endif	
     44          //}
     45          
     46          /** >>>>>>>>>>>>>>>>>>>>>>>>>>>>>>>>>>>>>>>>>>>>>>>>>>>>>>>>>>> **/
     47          //void  HalOS_SemaphorePost  (HAL_OS_SEM_ID id)
     48          //{
     49          //	(void)osSemaphoreRelease(id);
     50          //}
     51          
     52          /** >>>>>>>>>>>>>>>>>>>>>>>>>>>>>>>>>>>>>>>>>>>>>>>>>>>>>>>>>>> **/
     53          //uint32 HalOS_GetKernelTick  (void)
     54          //{
     55          //	return osKernelSysTick();
     56          //}
     57          
     58          /** >>>>>>>>>>>>>>>>>>>>>>>>>>>>>>>>>>>>>>>>>>>>>>>>>>>>>>>>>>> **/
     59          //void   HalOS_Delay	( uint32 millisec )
     60          //{
     61          //	(void)osDelay(millisec);
     62          //}


 

 


Errors: none
Warnings: none
