###############################################################################
#                                                                             #
#     IAR Assembler V7.70.1.11437/W32 for ARM 17/Oct/2019  14:22:09           #
#     Copyright 1999-2016 IAR Systems AB.                                     #
#                                                                             #
#           Source file   =  C:\A26\GAC_NE_DS_A26_2019_27632_DevEng_Workspace\src_app\cmsis_os\Freertos\portable\IAR\ARM_CM4F\portasm.asm#
#           List file     =  C:\A26\GAC_NE_DS_A26_2019_27632_DevEng_Workspace\src_app\obj\portasm.lst#
#           Object file   =  C:\A26\GAC_NE_DS_A26_2019_27632_DevEng_Workspace\src_app\obj\portasm.o#
#           Command line  =  cmsis_os/Freertos/portable/IAR/ARM_CM4F/portasm.asm #
#                            --cpu Cortex-M4F -r -S -DCPU_S32K14x             #
#                            -D__FPU_PRESENT=1 -D__APP_ -DSW_VERSION=1000u    #
#                            -I../sys/ewarm_/ew_inc -Icmsis_os                #
#                            -Icmsis_os/Freertos -Icmsis_os/Freertos/include  #
#                            -Icmsis_os/Freertos/portable/IAR/ARM_CM4F        #
#                            -Icmsis_os/Freertos/portable/MemMang -Ihal       #
#                            -IHal/cfg -Ihal/cpu_core                         #
#                            -IHal/cpu_core/ARM-Cortex-M4/IAR                 #
#                            -Ihal/cpu_core/CMSIS/Include                     #
#                            -Ihal/cpu_core/s32k14x -IHal/ext_dev             #
#                            -IHal/hal_c -IHal/os -IHal/hw -IApp -IApp/eep    #
#                            -IApp/flash -IApp/pwrctrl -IApp/version          #
#                            -IApp/diag -IApp/cfg -IApp/cfg/gen_code          #
#                            -IApp/monitor -IApp/tp_iic -IApp/host_iic        #
#                            -IApp/cf_test -IApp/eeprom/gen_code -IApp/boot   #
#                            -IApp/power_mana -Ibsp -Ibsp/gpio -Ibsp/cpu_ts   #
#                            -Ibsp/bat_mana -Ibsp/panel -Ibsp/temperate       #
#                            -Ibsp/backlight -Ibsp/dev_pwr -Iservice -Iobj    #
#                            -Itrace/server -Itrace -Itrace/cfg               #
#                            -Itrace/trace_phy -o obj/portasm.o -l            #
#                            obj/portasm.lst                                  #
#                                                                             #
###############################################################################

    1                           /*
    2                               FreeRTOS V9.0.0 - Copyright (C) 2016 Real
                                 Time Engineers Ltd.
    3                               All rights reserved
    4                           
    5                               VISIT http://www.FreeRTOS.org TO ENSURE
                                 YOU ARE USING THE LATEST VERSION.
    6                           
    7                               This file is part of the FreeRTOS
                                 distribution.
    8                           
    9                               FreeRTOS is free software; you can
                                 redistribute it and/or modify it under
   10                               the terms of the GNU General Public
                                 License (version 2) as published by the
   11                               Free Software Foundation >>>> AND MODIFIED
                                 BY <<<< the FreeRTOS exception.
   12                           
   13                               ******************************************
                                *********************************
   14                               >>!   NOTE: The modification to the GPL is
                                 included to allow you to     !<<
   15                               >>!   distribute a combined work that
                                 includes FreeRTOS without being   !<<
   16                               >>!   obliged to provide the source code
                                 for proprietary components     !<<
   17                               >>!   outside of the FreeRTOS kernel.     
                                                              !<<
   18                               ******************************************
                                *********************************
   19                           
   20                               FreeRTOS is distributed in the hope that
                                 it will be useful, but WITHOUT ANY
   21                               WARRANTY; without even the implied
                                 warranty of MERCHANTABILITY or FITNESS
   22                               FOR A PARTICULAR PURPOSE.  Full license
                                 text is available on the following
   23                               link: http://www.freertos.org/a00114.html
   24                           
   25                               ******************************************
                                *********************************
   26                                *                                        
                                                               *
   27                                *    FreeRTOS provides completely free
                                 yet professionally developed,    *
   28                                *    robust, strictly quality controlled,
                                 supported, and cross          *
   29                                *    platform software that is more than
                                 just the market leader, it     *
   30                                *    is the industry's de facto standard.
                                                               *
   31                                *                                        
                                                               *
   32                                *    Help yourself get started quickly
                                 while simultaneously helping     *
   33                                *    to support the FreeRTOS project by
                                 purchasing a FreeRTOS           *
   34                                *    tutorial book, reference manual, or
                                 both:                          *
   35                                *    http://www.FreeRTOS.org/Documentatio
                                n                              *
   36                                *                                        
                                                               *
   37                               ******************************************
                                *********************************
   38                           
   39                               http://www.FreeRTOS.org/FAQHelp.html -
                                 Having a problem?  Start by reading
   40                               the FAQ page "My application does not run,
                                 what could be wrong?".  Have you
   41                               defined configASSERT()?
   42                           
   43                               http://www.FreeRTOS.org/support - In
                                 return for receiving this top quality
   44                               embedded software for free we request you
                                 assist our global community by
   45                               participating in the support forum.
   46                           
   47                               http://www.FreeRTOS.org/training -
                                 Investing in training allows your team
                                 to
   48                               be as productive as possible as early as
                                 possible.  Now you can receive
   49                               FreeRTOS training directly from Richard
                                 Barry, CEO of Real Time Engineers
   50                               Ltd, and the world's leading authority on
                                 the world's leading RTOS.
   51                           
   52                               http://www.FreeRTOS.org/plus - A selection
                                 of FreeRTOS ecosystem products,
   53                               including FreeRTOS+Trace - an indispensabl
                                e productivity tool, a DOS
   54                               compatible FAT file system, and our tiny
                                 thread aware UDP/IP stack.
   55                           
   56                               http://www.FreeRTOS.org/labs - Where new
                                 FreeRTOS products go to incubate.
   57                               Come and try FreeRTOS+TCP, our new open
                                 source TCP/IP stack for FreeRTOS.
   58                           
   59                               http://www.OpenRTOS.com - Real Time
                                 Engineers ltd. license FreeRTOS to High
   60                               Integrity Systems ltd. to sell under the
                                 OpenRTOS brand.  Low cost OpenRTOS
   61                               licenses offer ticketed support,
                                 indemnification and commercial middleware.
   62                           
   63                               http://www.SafeRTOS.com - High Integrity
                                 Systems also provide a safety
   64                               engineered and independently SIL3
                                 certified version for use in safety and
   65                               mission critical applications that require
                                 provable dependability.
   66                           
   67                               1 tab == 4 spaces!
   68                           */
   69                           
   70                           #include <FreeRTOSConfig.h>
   71                           
   72                                   RSEG    CODE:CODE(2)
   73                                   thumb
   74                           
   75                                   EXTERN pxCurrentTCB
   76                                   EXTERN vTaskSwitchContext
   77                                   EXTERN PendSVHandler_Occure
   78                           
   79                                   PUBLIC xPortPendSVHandler
   80                                   PUBLIC vPortSVCHandler
   81                                   PUBLIC vPortStartFirstTask
   82                                   PUBLIC vPortEnableVFP
   83                           
   84                           
   85                           /*--------------------------------------------
                                ---------------*/
   86                           
   87                           xPortPendSVHandler:
   88    00000000 EFF30980              mrs r0, psp
   89    00000004 BFF36F8F              isb
   90                                   /* Get the location of the current
                                 TCB. */
   91    00000008 254B                  ldr     r3, =pxCurrentTCB
   92    0000000A 1A68                  ldr     r2, [r3]
   93                           
   94                                   /* Is the task using the FPU context? 
                                 If so, push high vfp registers. */
   95    0000000C 1EF0100F              tst r14, #0x10
   96    00000010 08BF                  it eq
   97    00000012 20ED108A              vstmdbeq r0!, {s16-s31}
   98                           
   99                                   /* Save the core registers. */
  100    00000016 20E9F04F              stmdb r0!, {r4-r11, r14}
  101                           
  102                                   /* Save the new top of stack into the
                                 first member of the TCB. */
  103    0000001A 1060                  str r0, [r2]
  104                           
  105    0000001C 08B4                  stmdb sp!, {r3}
  106    0000001E 4FF05000              mov r0, #configMAX_SYSCALL_INTERRUPT_PR
                                            IORITY
  107    00000022 80F31188              msr basepri, r0
  108    00000026 BFF34F8F              dsb
  109    0000002A BFF36F8F              isb
  110    0000002E ........              bl PendSVHandler_Occure
  111    00000032 ........              bl vTaskSwitchContext
  112    00000036 4FF00000              mov r0, #0
  113    0000003A 80F31188              msr basepri, r0
  114    0000003E 08BC                  ldmia sp!, {r3}
  115                           
  116                                   /* The first item in pxCurrentTCB is
                                 the task top of stack. */
  117    00000040 1968                  ldr r1, [r3]
  118    00000042 0868                  ldr r0, [r1]
  119                           
  120                                   /* Pop the core registers. */
  121    00000044 B0E8F04F              ldmia r0!, {r4-r11, r14}
  122                           
  123                                   /* Is the task using the FPU context? 
                                 If so, pop the high vfp registers
  124                                   too. */
  125    00000048 1EF0100F              tst r14, #0x10
  126    0000004C 08BF                  it eq
  127    0000004E B0EC108A              vldmiaeq r0!, {s16-s31}
  128                           
  129    00000052 80F30988              msr psp, r0
  130    00000056 BFF36F8F              isb
  131                                   #ifdef WORKAROUND_PMU_CM001 /* XMC4000
                                 specific errata */
  132                                           #if WORKAROUND_PMU_CM001 ==
                                 1
  135                                           #endif
  136                                   #endif
  137                           
  138    0000005A 7047                  bx r14
  139                           
  140                           
  141                           /*--------------------------------------------
                                ---------------*/
  142                           
  143                           vPortSVCHandler:
  144                                   /* Get the location of the current
                                 TCB. */
  145    0000005C 104B                  ldr     r3, =pxCurrentTCB
  146    0000005E 1968                  ldr r1, [r3]
  147    00000060 0868                  ldr r0, [r1]
  148                                   /* Pop the core registers. */
  149    00000062 B0E8F04F              ldmia r0!, {r4-r11, r14}
  150    00000066 80F30988              msr psp, r0
  151    0000006A BFF36F8F              isb
  152    0000006E 4FF00000              mov r0, #0
  153    00000072 80F31188              msr     basepri, r0
  154    00000076 7047                  bx r14
  155                           
  156                           /*--------------------------------------------
                                ---------------*/
  157                           
  158                           vPortStartFirstTask
  159                                   /* Use the NVIC offset register to
                                 locate the stack. */
  160    00000078 0A48                  ldr r0, =0xE000ED08
  161    0000007A 0068                  ldr r0, [r0]
  162    0000007C 0068                  ldr r0, [r0]
  163                                   /* Set the msp back to the start of
                                 the stack. */
  164    0000007E 80F30888              msr msp, r0
  165                                   /* Call SVC to start the first task.
                                 */
  166    00000082 62B6                  cpsie i
  167    00000084 61B6                  cpsie f
  168    00000086 BFF34F8F              dsb
  169    0000008A BFF36F8F              isb
  170    0000008E 00DF                  svc 0
  171                           
  172                           /*--------------------------------------------
                                ---------------*/
  173                           
  174                           vPortEnableVFP:
  175                                   /* The FPU enable bits are in the
                                 CPACR. */
  176    00000090 DFF81400              ldr.w r0, =0xE000ED88
  177    00000094 0168                  ldr     r1, [r0]
  178                           
  179                                   /* Enable CP10 and CP11 coprocessors,
                                 then save back. */
  180    00000096 41F47001              orr     r1, r1, #( 0xf << 20 )
  181    0000009A 0160                  str r1, [r0]
  182    0000009C 7047                  bx      r14
  183                           
  184                           
  185                           
  185.1                                  TABLE
  185.2  000000A0 ........              Reference on line 91,145
  185.3  000000A4 08ED00E0              Reference on line 160
  185.4  000000A8 88ED00E0              Reference on line 176
  186                                   END
##############################
#           CRC:0            #
#        Errors:   0         #
#        Warnings: 0         #
#         Bytes: 172         #
##############################



